{
  "kind": "collectionType",
  "collectionName": "variants",
  "info": {
    "singularName": "variant",
    "pluralName": "variants",
    "displayName": "Variant"
  },
  "options": {
    "draftAndPublish": true
  },
  "pluginOptions": {},
  "attributes": {
    "name": {
      "type": "string"
    },
    "model": {
      "type": "relation",
      "relation": "oneToOne",
      "target": "api::model.model"
    },
    "brand": {
      "type": "relation",
      "relation": "oneToOne",
      "target": "api::brand.brand"
    },
    "features_component": {
      "displayName": "features",
      "type": "component",
      "repeatable": true,
      "component": "features.features"
    },
    "specifications_component": {
      "displayName": "specifications",
      "type": "component",
      "repeatable": true,
      "component": "specs.specifications"
    }
  }
}
