{
  "collectionName": "components_vehicle_specs_nuumber_of_gears",
  "info": {
    "displayName": "nuumberOfGears",
    "icon": "drumstick-bite"
  },
  "options": {},
  "attributes": {
    "numberOfGears": {
      "type": "json"
    }
  }
}
